..........................
----------------------------------------------------------------------
Ran 26 tests in 0.138s

OK
Name             Stmts   Miss Branch BrPart  Cover   Missing
------------------------------------------------------------
Collatz.py          74      5     32      3    91%   95->98, 98, 102->105, 108->105, 154-157
TestCollatz.py     112      0      0      0   100%
------------------------------------------------------------
TOTAL              186      5     32      3    95%
            186      5     32      3    95%