...................
----------------------------------------------------------------------
Ran 19 tests in 0.005s

OK
Name             Stmts   Miss Branch BrPart  Cover   Missing
------------------------------------------------------------
Collatz.py          36      0     12      0   100%
TestCollatz.py      81      0      0      0   100%
------------------------------------------------------------
TOTAL              117      0     12      0   100%
