1 10 20
100 200 125
201 210 89
900 1000 174
11 40 112
40 11 112
1000 10000 262
1 1 1
100000 10000 351
9000 10000 260
1000 10 179
1 100000 351
275 859 171
210 411 144
916 874 148
219 732 171
782 283 171
750 518 171
514 289 144
459 639 142
34 971 179
424 892 179
607 767 171
260 66 128
641 638 132
425 210 144
516 989 179
359 717 171
308 49 128
367 355 95
828 759 153
555 356 142
495 183 144
133 227 125
615 722 171
243 521 144
644 963 179
115 271 128
969 907 174
228 625 144
5 592 144
196 737 171
294 306 118
776 828 135
162 645 144
810 238 171
243 24 128
891 615 179
390 316 144
527 661 145
506 821 171
4394 2190 238
7094 3094 262
9906 9853 242
3299 2688 217
6759 5055 262
1137 2517 209
2298 1715 183
7586 6731 257
9967 4360 262
7273 3798 262
9526 9617 198
3194 3717 238
3654 7725 262
1900 1217 180
1974 3453 217
3250 4456 238
6252 4024 262
6817 3668 262
2299 1831 183
2729 5451 238
2910 6808 262
3498 1167 217
2627 5641 238
3561 3569 194
7206 2898 262
3619 9960 262
6484 5883 262
4620 5301 210
8989 9522 260
4241 7746 262
9649 4540 262
5191 1442 238
4747 7613 262
5233 4155 215
9082 2171 262
6328 7084 257
2421 3631 217
4039 1521 238
3946 3541 238
43455 83353 351
33311 91705 351
32290 87915 351
62545 85985 351
97741 89576 333
53156 83749 351
47856 70574 340
91078 92027 333
89846 53099 351
86511 56935 351
47561 98462 351
52433 13575 324
83699 95099 333
55883 91258 351
58522 35978 340
78865 57429 351
72123 11904 340
47577 20195 324
11643 97861 351
20529 12514 279
23068 69045 340
19813 80591 351
12950 84822 351
69847 92325 351
77340 53180 351
82357 12929 351
98625 24622 351
54944 94485 351
75449 71587 325
49100 84202 351
93727 63557 351
63622 86756 351
88277 97295 333
39605 89180 351
10079 86139 351
26057 16575 282
22522 10017 279
52894 18186 340
12280 56501 340
930375 949280 507
164210 646044 509
379622 300922 441
502589 331678 449
831515 768531 468
113296 616898 470
196118 334171 443
408284 208885 443
654991 286445 509
857494 581325 525
335146 595321 470
963177 651179 525
191864 837782 509
917082 364684 525
426141 569994 470
211961 347640 443
748310 445063 509
789855 901273 525
301593 251548 407
584413 492916 470
370718 871433 525
169606 389510 443
383642 814584 509
224521 308197 443
501382 513150 470
420663 467287 444
176536 235041 443
767168 459854 509
445789 875627 525
509634 608737 470
456712 983393 525
921467 472232 525
207105 277736 443
486782 112973 449
679545 975058 525
429484 677142 509
700636 486813 509
488540 798026 509
444000 687129 509
1 999999 525
999999 999999 259
