10 1 20
20 11 21
30 21 112
40 31 107
50 41 110
60 51 113
70 61 108
80 71 116
90 81 111
100 91 119
1 100 119
101 200 125
201 300 128
301 400 144
401 500 142
501 600 137
601 700 145
701 800 171
801 900 179
901 1000 174
1001 1100 169
1101 1200 182
1201 1300 177
1301 1400 177
1401 1500 172
1501 1600 167
1601 1700 180
1701 1800 180
1801 1900 175
1901 2000 175
2001 2100 157
2101 2200 170
2201 2300 183
2301 2400 183
2401 2500 209
2501 2600 178
2601 2700 191
2701 2800 173
2801 2900 173
2901 3000 217
396 480 134
69 570 144
123 389 144
48 52 25
67 837 171
212 419 144
298 366 144
143 146 117
150 318 131
283 1010 179
100 421 144
28 386 144
320 238 131
69 487 144
224 1004 179
127 282 128
497 703 171
38 987 179
283 492 144
66 926 179
126 174 125
112 469 144
41 859 171
176 837 171
165 422 144
190 217 120
170 201 125
139 628 144
15 666 145
121 940 179
255 673 145
21 272 128
142 290 128
14 146 122
10 31 112
174 610 144
7 868 171
219 554 144
63 705 171
42 512 144
450 3997 238
2014 6432 262
1609 2063 180
177 7197 262
1653 1993 180
149 4730 238
1691 3929 238
1297 4633 238
919 4856 238
1239 1680 180
816 1310 182
369 4852 238
578 1969 182
1504 3322 217
1015 6929 262
459 6032 238
431 2636 209
888 4415 238
45 8061 262
434 1077 179
1446 5192 238
418 7881 262
567 1210 182
722 6249 262
649 1452 182
212 5319 238
568 6795 262
1300 3864 238
1280 8079 262
833 4702 238
121 5593 238
475 7345 262
1202 4361 238
206 3334 217
898 2206 182
224 4862 238
262 1844 182
934 1885 182
1586 3800 238
1028 3572 217
18 4078 238
1901 6769 262
634 7486 262
639 1834 182
261 1658 182
1313 3480 217
1793 5582 238
282 8148 262
1332 6119 238
924 6090 238
4465 4465 47
7518 7518 89
4796 4796 73
4154 4154 65
6785 6785 89
1970 1970 25
5878 5878 81
6513 6513 45
2451 2451 134
4885 4885 42
6246 6246 63
6735 6735 89
2449 2449 134
2130 2130 77
4655 4655 91
5533 5533 99
4125 4125 39
7628 7628 32
6330 6330 81
2507 2507 41
3553 3553 57
871 871 179
7705 7705 146
3586 3586 119
2734 2734 41
1105 1105 94
1372 1372 128
1739 1739 56
4699 4699 83
5155 5155 29
8043 8043 53
7999 7999 190
4146 4146 39
7242 7242 71
7352 7352 133
2463 2463 209
7271 7271 164
7361 7361 133
3747 3747 88
2243 2243 46
7030 7030 151
5483 5483 117
4824 4824 73
5847 5847 143
6221 6221 37
7611 7611 133
4405 4405 96
2763 2763 41
3655 3655 119
7648 7648 58
